…
```r
# Most common and least common times for goals
goaltime[complete.cases(goaltime$minute), ] %>% count(minute) %>% mutate(prob = (n/(nrow(results) - 
    1))) %>% arrange(desc(n))
```

```
## # A tibble: 90 × 3
##    minute     n       prob
##     <int> <int>      <dbl>
## 1      90  1249 0.15929091
## 2      45   588 0.07499043
## 3      88   282 0.03596480
## 4      64   268 0.03417931
## 5      82   268 0.03417931
## 6      86   265 0.03379671
## 7      55   262 0.03341411
## 8      50   261 0.03328657
## 9      79   259 0.03303150
## 10     67   253 0.03226629
## # ... with 80 more rows
```

```r
goaltime[complete.cases(goaltime$minute), ] %>% count(minute) %>% mutate(prob = (n/(nrow(results) - 
    1))) %>% arrange(n)
```

```
## # A tibble: 90 × 3
##    minute     n       prob
##     <int> <int>      <dbl>
## 1       1    95 0.01211580
## 2      46    98 0.01249841
## 3       2   152 0.01938528
## 4       7   154 0.01964035
## 5       6   164 0.02091570
## 6       5   166 0.02117077
## 7       3   170 0.02168091
## 8      24   170 0.02168091
## 9       4   173 0.02206351
## 10     32   174 0.02219105
## # ... with 80 more rows
```
…
